﻿  gdstrucmidterms.cpp
c:\users\ed\source\repos\gdstrucmidterms\gdstrucmidterms\gdstrucmidterms.cpp(11): warning C4326: return type of 'main' should be 'int' instead of 'void'
  gdstrucmidterms.vcxproj -> C:\Users\ed\source\repos\gdstrucmidterms\Debug\gdstrucmidterms.exe
